<svg xmlns="http://www.w3.org/2000/svg" viewBox="0 0 28.199 25.379">
  <defs>
    <style>
      .cls-1 {
        fill: #2fa442;
      }
    </style>
  </defs>
  <path id="coins_1_" data-name="coins (1)" class="cls-1" d="M28.194,11.46c-.047-.8-1-1.433-2.916-1.912a1.06,1.06,0,0,0,.1-.44V5.82h-.008C25.2,3.081,13.979,3,12.69,3S.176,3.081.008,5.82H0v.061H0V9.109C0,10,1.155,10.7,2.869,11.221a1.031,1.031,0,0,0-.042.238H2.82v.061h0v3.223C.973,15.219.05,15.838,0,16.629H0v.061H0v3.228c0,.622.562,1.149,1.48,1.589a1.035,1.035,0,0,0-.063.292H1.41v.061h0v3.228c0,1.563,3.523,2.534,7.434,2.987a.431.431,0,0,0,.086.017c.009,0,.016,0,.025-.005.754.085,1.52.151,2.278.2a.388.388,0,0,0,.047.009c.009,0,.016,0,.024-.005.963.058,1.91.088,2.8.088s1.833-.03,2.8-.088c.008,0,.016.005.024.005s.031-.008.047-.009c.758-.047,1.524-.113,2.278-.2.009,0,.016,0,.025,0a.432.432,0,0,0,.086-.017c3.911-.453,7.43-1.424,7.434-2.988V21.8h-.008c-.033-.576-.524-1.057-1.494-1.459a1.051,1.051,0,0,0,.092-.423V16.846c1.687-.519,2.818-1.213,2.82-2.1V11.46ZM24.388,20.07l-.16.141a4.2,4.2,0,0,1-1.2.649V18.618a6.994,6.994,0,0,0,1.41-.647v1.945A.3.3,0,0,1,24.388,20.07ZM13.877,22.254l-.207,0c-.168,0-.34,0-.51.006V19.917l.388-.006h.075q.71-.013,1.417-.045v2.347l-.3.014C14.453,22.238,14.168,22.247,13.877,22.254Zm-2.052.007q-.323-.006-.642-.016l-.079,0q-.384-.013-.763-.031V19.865q.706.033,1.417.045h.074l.388.006v2.349l-.273,0ZM3.335,21.189l-.046-.013v-2.27c.439.118.911.227,1.41.325v2.294q-.647-.137-1.192-.287Zm9.906,3.892.388.006v2.349q-.974-.009-1.88-.055V25.035q.706.033,1.417.045Zm1.79,0q.71-.013,1.417-.045v2.347q-.905.044-1.88.055V25.086l.388-.006Zm3.767-.212V27.2q-.677.071-1.41.124V24.981C17.866,24.95,18.337,24.912,18.8,24.867Zm.94-.1q.727-.087,1.41-.2v2.308q-.664.117-1.41.215Zm2.35-.366c.5-.1.971-.206,1.41-.325v2.27c-.419.121-.89.238-1.41.348ZM6.11,24.4v2.294c-.52-.11-.991-.227-1.41-.348v-2.27C5.139,24.193,5.611,24.3,6.11,24.4Zm.94.168q.682.111,1.41.2v2.325q-.745-.1-1.41-.215Zm2.35.3c.462.045.933.083,1.41.114v2.344q-.732-.051-1.41-.124Zm-1.166-2.81-.143-.015-.1-.011V19.7c.462.045.933.083,1.41.114v2.342C9,22.126,8.615,22.094,8.234,22.057ZM7.05,19.6v2.325q-.745-.1-1.41-.215V19.4Q6.322,19.508,7.05,19.6Zm9.243,2.536-.313.023V19.812c.477-.031.947-.069,1.41-.114v2.334c-.29.031-.587.059-.892.084Zm2.037-.211V19.6q.727-.087,1.41-.2v2.308Q19.075,21.822,18.329,21.921Zm2.35-2.691c.5-.1.971-.206,1.41-.325v2.27c-.419.121-.89.238-1.41.348Zm-6.427-2.147c-.353-.009-.7-.023-1.038-.039l-.055,0V14.7q.706.033,1.417.045h.074l.388.006v2.347c-.229,0-.46,0-.683-.008ZM3.29,10.366V8.1c.439.118.911.227,1.41.325v2.294l-.174-.037c-.25-.055-.494-.112-.727-.173C3.621,10.46,3.452,10.413,3.29,10.366ZM11.832,9.1l.388.006v2.347c-.633-.006-1.261-.023-1.88-.054V9.056q.706.033,1.417.045Zm1.79,0q.71-.013,1.417-.045V11.4l-.237.013h-.02c-.315.014-.637.024-.963.032l-.152,0c-.167,0-.338,0-.508.006V9.107l.388-.006Zm10.709.236-.013,0-.171.133a4.571,4.571,0,0,1-1.118.578V7.808a6.994,6.994,0,0,0,1.41-.647V9.106A.369.369,0,0,1,24.331,9.336Zm-6,1.772V8.786q.727-.087,1.41-.2v2.3C19.294,10.971,18.825,11.043,18.329,11.108Zm2.35-.4V8.421c.5-.1.971-.206,1.41-.325v2.265C21.668,10.484,21.194,10.6,20.679,10.711Zm-3.29-1.823v2.331q-.681.072-1.41.125V9C16.456,8.971,16.927,8.933,17.389,8.888ZM7.99,11.22V8.888c.462.045.933.083,1.41.114v2.34C8.921,11.307,8.449,11.268,7.99,11.22ZM7.05,8.786v2.322c-.093-.012-.19-.022-.282-.035l-.177-.026q-.407-.059-.8-.125L5.64,10.9V8.589Q6.322,8.7,7.05,8.786Zm5.053,8.19-.19-.014q-.451-.035-.881-.078l-.184-.019-.038,0V14.528c.462.045.933.083,1.41.114v2.342ZM9,16.626c-.186-.03-.361-.062-.538-.093v-2.3q.682.111,1.41.2v2.325c-.288-.038-.569-.078-.839-.12ZM7.52,14.06v2.29Q6.741,16.183,6.11,16V13.735C6.549,13.854,7.021,13.962,7.52,14.06Zm-2.35-.612v2.233a2.932,2.932,0,0,1-1.37-.836l-.031-.053a.3.3,0,0,1-.008-.045V12.8A6.994,6.994,0,0,0,5.17,13.448ZM16.442,14.74q.71-.013,1.417-.045v2.344c-.618.031-1.245.047-1.88.054V14.747l.388-.006Zm6.074,1.8c-.206.036-.415.071-.628.1l-.374.055c-.119.017-.243.031-.363.047V14.426q.727-.087,1.41-.2v2.308Zm-3.182.4c-.175.015-.356.024-.534.037v-2.34c.477-.031.947-.069,1.41-.114v2.332c-.273.029-.546.057-.826.081Zm5.371-.881c-.234.065-.482.126-.735.186-.117.027-.236.055-.359.081l-.111.023V14.061c.5-.1.971-.206,1.41-.325v2.27Zm2.55-4.573c-.043.319-.767.744-2.058,1.143h0a31.546,31.546,0,0,1-7.562,1.13c-.169.007-.337.014-.509.02L16.7,13.8c-.389.008-.784.015-1.191.015s-.8-.006-1.191-.015l-.425-.013c-.172-.005-.341-.013-.509-.02a31.542,31.542,0,0,1-7.562-1.13h0c-1.281-.4-2-.817-2.056-1.135a.11.11,0,0,1,.008-.028l.1.023c.184.044.372.086.564.126.934.2,1.969.366,3.071.492l.01,0h0c.751.086,1.53.153,2.33.2.006,0,.011,0,.017,0l.009,0q.864.051,1.749.072c.361.009.716.014,1.062.014.247,0,.5,0,.755-.008A35.989,35.989,0,0,0,22.226,11.3c.1-.029.2-.058.3-.088l.179-.055c.17-.055.333-.11.491-.169l.08-.031c.133-.05.261-.1.383-.156l.106-.046c.13-.059.256-.119.373-.181.053-.028.1-.056.148-.085s.113-.065.165-.1c.03-.019.065-.037.093-.055C26.646,10.8,27.2,11.3,27.254,11.49ZM12.69,3.94c7.75,0,11.669,1.22,11.743,1.92-.057.318-.778.737-2.056,1.132h0a31.546,31.546,0,0,1-7.562,1.13c-.169.007-.337.014-.509.02l-.425.013c-.389.009-.784.015-1.191.015s-.8-.006-1.191-.015l-.425-.013c-.172-.005-.341-.013-.509-.02A31.542,31.542,0,0,1,3,6.992H3C1.725,6.6,1,6.178.947,5.86,1.02,5.16,4.94,3.94,12.69,3.94ZM.94,9.108V7.162a6.994,6.994,0,0,0,1.41.647v2.25C1.436,9.716.941,9.372.94,9.108Zm2.277,6.5c.007.008.018.014.025.022a8,8,0,0,0,3.634,1.541l.117.026q.183.041.37.08a36.247,36.247,0,0,0,5.323.675h.005q.955.056,1.952.074c.294.006.584.01.867.01.324,0,.657,0,1-.012.615-.013,1.221-.038,1.818-.073h.007l.012,0a36.35,36.35,0,0,0,5.425-.695,8.514,8.514,0,0,1-1.39.543h0a32.431,32.431,0,0,1-8.122,1.151l-.317.01-.349.007c-.3,0-.593.009-.9.009-.407,0-.8-.006-1.191-.015l-.425-.013c-.172-.005-.341-.013-.509-.02A31.542,31.542,0,0,1,3,17.8H3C1.71,17.4.987,16.978.945,16.659,1,16.482,1.472,16.04,3.217,15.612ZM.94,19.917V17.971a6.994,6.994,0,0,0,1.41.647v2.241l-.268-.1-.006.006C1.338,20.455.941,20.154.94,19.917Zm1.41,5.17V23.141a6.994,6.994,0,0,0,1.41.647v2.25C2.846,25.7,2.351,25.352,2.35,25.087Zm22.089.951v-2.25a6.994,6.994,0,0,0,1.41-.647v1.945C25.849,25.351,25.353,25.695,24.439,26.038Zm1.4-4.2c-.051.318-.773.74-2.057,1.137h0a31.546,31.546,0,0,1-7.562,1.13c-.169.007-.337.014-.509.02l-.425.013c-.389.008-.784.015-1.191.015s-.8-.006-1.192-.015l-.421-.013c-.173-.006-.343-.013-.512-.02a31.546,31.546,0,0,1-7.562-1.13h0c-1.243-.384-1.961-.792-2.051-1.107.14.049.285.1.434.143l.045.014q.19.059.39.113l.152.042.229.059a34.287,34.287,0,0,0,6.255.889h0c.728.043,1.472.07,2.224.079.2,0,.4.006.594.006.259,0,.524,0,.792-.008.686-.011,1.362-.037,2.024-.076h.01c.806-.048,1.586-.117,2.336-.2h.008c.01,0,.019-.005.029-.006.835-.1,1.626-.215,2.361-.352.151-.028.3-.056.448-.086l.1-.02a12.628,12.628,0,0,0,3.413-1.111c.045-.024.087-.05.13-.075s.1-.063.15-.094.1-.057.139-.087C25.557,21.421,25.812,21.718,25.843,21.835Zm.006-6.137v-2.25a6.994,6.994,0,0,0,1.41-.647v1.945C27.258,15.011,26.763,15.355,25.849,15.7Z" transform="translate(0 -3)"/>
</svg>
