<svg xmlns="http://www.w3.org/2000/svg" viewBox="0 0 28 30">
  <defs>
    <style>
      .cls-1 {
        fill: #2fa442;
      }
    </style>
  </defs>
  <g id="hospital" transform="translate(-16)">
    <g id="Group_313" data-name="Group 313" transform="translate(38 13)">
      <g id="Group_312" data-name="Group 312">
        <path id="Path_142" data-name="Path 142" class="cls-1" d="M368,208v3h4v-3Zm3,2h-2v-1h2Z" transform="translate(-368 -208)"/>
      </g>
    </g>
    <g id="Group_315" data-name="Group 315" transform="translate(38 17)">
      <g id="Group_314" data-name="Group 314">
        <path id="Path_143" data-name="Path 143" class="cls-1" d="M368,272v3h4v-3Zm3,2h-2v-1h2Z" transform="translate(-368 -272)"/>
      </g>
    </g>
    <g id="Group_317" data-name="Group 317" transform="translate(38 21)">
      <g id="Group_316" data-name="Group 316">
        <path id="Path_144" data-name="Path 144" class="cls-1" d="M368,336v3h4v-3Zm3,2h-2v-1h2Z" transform="translate(-368 -336)"/>
      </g>
    </g>
    <g id="Group_319" data-name="Group 319" transform="translate(38 25)">
      <g id="Group_318" data-name="Group 318">
        <path id="Path_145" data-name="Path 145" class="cls-1" d="M368,400v3h4v-3Zm3,2h-2v-1h2Z" transform="translate(-368 -400)"/>
      </g>
    </g>
    <g id="Group_321" data-name="Group 321" transform="translate(25 2)">
      <g id="Group_320" data-name="Group 320">
        <path id="Path_146" data-name="Path 146" class="cls-1" d="M167,35V32h-4v3h-3v4h3v3h4V39h3V35Zm2,3h-3v3h-2V38h-3V36h3V33h2v3h3Z" transform="translate(-160 -32)"/>
      </g>
    </g>
    <g id="Group_323" data-name="Group 323" transform="translate(16)">
      <g id="Group_322" data-name="Group 322">
        <path id="Path_147" data-name="Path 147" class="cls-1" d="M37,11V0H23V11H16V30H44V11ZM23,29H17V12h6Zm6.5,0H27V20h2.5ZM33,29H30.5V20H33Zm3,0H34V19H26V29H24V1H36Zm7,0H37V12h6Z" transform="translate(-16)"/>
      </g>
    </g>
    <g id="Group_325" data-name="Group 325" transform="translate(18 13)">
      <g id="Group_324" data-name="Group 324">
        <path id="Path_148" data-name="Path 148" class="cls-1" d="M48,208v3h4v-3Zm3,2H49v-1h2Z" transform="translate(-48 -208)"/>
      </g>
    </g>
    <g id="Group_327" data-name="Group 327" transform="translate(18 17)">
      <g id="Group_326" data-name="Group 326">
        <path id="Path_149" data-name="Path 149" class="cls-1" d="M48,272v3h4v-3Zm3,2H49v-1h2Z" transform="translate(-48 -272)"/>
      </g>
    </g>
    <g id="Group_329" data-name="Group 329" transform="translate(18 21)">
      <g id="Group_328" data-name="Group 328">
        <path id="Path_150" data-name="Path 150" class="cls-1" d="M48,336v3h4v-3Zm3,2H49v-1h2Z" transform="translate(-48 -336)"/>
      </g>
    </g>
    <g id="Group_331" data-name="Group 331" transform="translate(18 25)">
      <g id="Group_330" data-name="Group 330">
        <path id="Path_151" data-name="Path 151" class="cls-1" d="M48,400v3h4v-3Zm3,2H49v-1h2Z" transform="translate(-48 -400)"/>
      </g>
    </g>
  </g>
</svg>
