<svg width="256" height="256" viewBox="0 0 256 256" fill="none" xmlns="http://www.w3.org/2000/svg">
<rect width="256" height="256" rx="3" fill="white"/>
<path d="M62.5781 157.637C62.5781 142.678 70.5225 129.609 82.3951 122.312L195.634 122.312C195.634 123.732 195.07 125.093 194.066 126.097L135.286 184.874C127.688 193.584 116.529 199.111 104.057 199.111C81.1484 199.111 62.5781 180.545 62.5781 157.637Z" fill="#219653"/>
<circle cx="99.5551" cy="88.1778" r="25.6" transform="rotate(-90 99.5551 88.1778)" fill="#27AE60"/>
<circle cx="167.823" cy="88.1778" r="25.6" transform="rotate(-90 167.823 88.1778)" fill="#6FCF97"/>
</svg>
