<svg xmlns="http://www.w3.org/2000/svg" viewBox="0 0 29.073 29.073">
  <defs>
    <style>
      .cls-1 {
        fill: #2fa442;
      }
    </style>
  </defs>
  <path id="user_4_" data-name="user (4)" class="cls-1" d="M29.073,14.536A14.536,14.536,0,1,0,4.718,25.244l-.014.012.472.4c.031.026.064.047.095.072.251.208.51.4.774.6.086.062.171.124.258.184q.423.292.868.554l.195.112c.324.184.655.358.994.518l.075.034a14.405,14.405,0,0,0,3.516,1.113l.1.017c.383.066.77.119,1.161.154l.143.011c.39.032.784.053,1.184.053s.787-.021,1.175-.052l.147-.011q.583-.053,1.151-.152l.1-.018a14.4,14.4,0,0,0,3.466-1.086L20.7,27.7q.489-.23.957-.495l.232-.134c.284-.168.564-.343.836-.529.1-.067.193-.137.29-.207.232-.167.46-.339.681-.52.049-.04.1-.074.15-.115l.484-.4-.014-.012A14.5,14.5,0,0,0,29.073,14.536Zm-28.015,0A13.479,13.479,0,1,1,23.475,24.613,3.962,3.962,0,0,0,23,24.329l-4.476-2.238a1.172,1.172,0,0,1-.651-1.053V19.475c.1-.128.213-.273.326-.432a10.772,10.772,0,0,0,1.383-2.708,1.918,1.918,0,0,0,1.1-1.739V12.723a1.923,1.923,0,0,0-.469-1.252V9a4.263,4.263,0,0,0-1-3.1c-.974-1.112-2.551-1.675-4.687-1.675S10.823,4.792,9.849,5.9a4.263,4.263,0,0,0-1,3.1V11.47a1.926,1.926,0,0,0-.469,1.252V14.6a1.923,1.923,0,0,0,.708,1.491,9.932,9.932,0,0,0,1.635,3.377v1.53a1.179,1.179,0,0,1-.614,1.035l-4.18,2.28a3.82,3.82,0,0,0-.4.252A13.447,13.447,0,0,1,1.057,14.536ZM22.443,25.442q-.278.2-.564.389c-.088.057-.175.114-.264.17-.249.154-.5.3-.762.439l-.172.088a13.469,13.469,0,0,1-1.844.78l-.067.023q-.5.165-1.006.292h0c-.343.085-.689.155-1.038.212l-.029.005c-.328.053-.659.092-.991.121l-.177.013c-.328.025-.658.041-.99.041s-.669-.016-1-.041l-.172-.013c-.335-.03-.669-.069-1-.123l-.044-.008a13.429,13.429,0,0,1-2.056-.513L10.2,27.3q-.5-.17-.984-.377l-.007,0c-.306-.132-.605-.278-.9-.431l-.116-.06c-.27-.144-.534-.3-.8-.463l-.23-.147c-.24-.157-.477-.32-.707-.493l-.07-.055.051-.029,4.18-2.28a2.235,2.235,0,0,0,1.166-1.963v-1.9l-.122-.147a8.826,8.826,0,0,1-1.586-3.286l-.048-.209-.18-.117a.876.876,0,0,1-.406-.736V12.722a.863.863,0,0,1,.294-.646l.174-.158V8.973l0-.069a3.184,3.184,0,0,1,.738-2.3,4.981,4.981,0,0,1,3.892-1.314,4.994,4.994,0,0,1,3.883,1.3,3.237,3.237,0,0,1,.747,2.316l0,3.013.174.158a.864.864,0,0,1,.294.646V14.6a.883.883,0,0,1-.624.833l-.263.081-.085.262a9.779,9.779,0,0,1-1.319,2.66c-.138.2-.273.369-.389.5l-.131.15v1.955a2.222,2.222,0,0,0,1.236,2l4.476,2.238.085.044C22.559,25.361,22.5,25.4,22.443,25.442Z"/>
</svg>
