<svg xmlns="http://www.w3.org/2000/svg" viewBox="0 0 24.855 27.69">
  <defs>
    <style>
      .cls-1 {
        fill: #2fa442;
      }
    </style>
  </defs>
  <g id="approve-invoice" transform="translate(-25.17)">
    <path id="Path_610" data-name="Path 610" class="cls-1" d="M48.346,0H32.17a1.681,1.681,0,0,0-1.679,1.679V5.436a7.338,7.338,0,0,0,0,14.111v6.464A1.681,1.681,0,0,0,32.17,27.69H45.389a.591.591,0,0,0,.418-.173l4.045-4.045a.591.591,0,0,0,.173-.418V1.679A1.681,1.681,0,0,0,48.346,0ZM32.17,1.183H48.346a.5.5,0,0,1,.5.5V3.463H31.674V1.679A.5.5,0,0,1,32.17,1.183ZM26.353,12.491a6.155,6.155,0,1,1,6.155,6.155A6.162,6.162,0,0,1,26.353,12.491Zm5.321,13.52v-6.23a7.326,7.326,0,0,0,6.363-2.473H41.66a.591.591,0,0,0,0-1.183H38.879a7.284,7.284,0,0,0,.937-3H41.66a.591.591,0,0,0,0-1.183H39.824a7.283,7.283,0,0,0-.895-3H41.66a.591.591,0,0,0,0-1.183H38.114A7.326,7.326,0,0,0,31.674,5.2V4.646H48.842V22.463H46.476A1.681,1.681,0,0,0,44.8,24.141v2.366H32.17A.5.5,0,0,1,31.674,26.011Zm14.307-.34v-1.53a.5.5,0,0,1,.5-.5h1.53Z"/>
    <path id="Path_611" data-name="Path 611" class="cls-1" d="M349.337,139.052H351.3a.591.591,0,0,0,0-1.183h-1.964a.591.591,0,0,0,0,1.183Z" transform="translate(-305.354 -130.105)"/>
    <path id="Path_612" data-name="Path 612" class="cls-1" d="M349.337,213.293H351.3a.591.591,0,0,0,0-1.183h-1.964a.591.591,0,0,0,0,1.183Z" transform="translate(-305.354 -200.165)"/>
    <path id="Path_613" data-name="Path 613" class="cls-1" d="M349.337,287.535H351.3a.591.591,0,0,0,0-1.183h-1.964a.591.591,0,0,0,0,1.183Z" transform="translate(-305.354 -270.226)"/>
    <path id="Path_614" data-name="Path 614" class="cls-1" d="M291.514,361.776a.591.591,0,1,0,0-1.183h-5.532a.591.591,0,1,0,0,1.183Z" transform="translate(-245.567 -340.286)"/>
    <path id="Path_615" data-name="Path 615" class="cls-1" d="M78.081,151.709l-.721-.721a1.029,1.029,0,0,0-1.455,0l-3.784,3.784-1.046-1.046a1.029,1.029,0,0,0-1.455,0l-.722.722a1.03,1.03,0,0,0,0,1.455l2.495,2.495a1.022,1.022,0,0,0,.727.3h0a1.022,1.022,0,0,0,.727-.3l5.233-5.233A1.03,1.03,0,0,0,78.081,151.709Zm-5.96,5.742-2.277-2.277.5-.5,1.355,1.355a.591.591,0,0,0,.836,0l4.093-4.093.5.5Z" transform="translate(-40.982 -142.2)"/>
  </g>
</svg>
