-- Merging decision tree log ---
provider#de.appplant.cordova.plugin.notification.util.AssetProvider
INJECTED from /home/austinwise1993/Documents/HealthPayment/platforms/android/app/src/main/AndroidManifest.xml:12:9-14:20
	android:grantUriPermissions
		ADDED from /home/austinwise1993/Documents/HealthPayment/platforms/android/app/src/main/AndroidManifest.xml:12:92-126
	android:authorities
		INJECTED from /home/austinwise1993/Documents/HealthPayment/platforms/android/app/src/main/AndroidManifest.xml
		ADDED from /home/austinwise1993/Documents/HealthPayment/platforms/android/app/src/main/AndroidManifest.xml:12:19-66
	android:exported
		ADDED from /home/austinwise1993/Documents/HealthPayment/platforms/android/app/src/main/AndroidManifest.xml:12:67-91
	android:name
		ADDED from /home/austinwise1993/Documents/HealthPayment/platforms/android/app/src/main/AndroidManifest.xml:12:127-200
activity#com.adobe.phonegap.notification.NotificationHandlerActivity
INJECTED from /home/austinwise1993/Documents/HealthPayment/platforms/android/app/src/main/AndroidManifest.xml:18:9-189
	android:exported
		ADDED from /home/austinwise1993/Documents/HealthPayment/platforms/android/app/src/main/AndroidManifest.xml:18:19-42
	android:permission
		INJECTED from /home/austinwise1993/Documents/HealthPayment/platforms/android/app/src/main/AndroidManifest.xml
		ADDED from /home/austinwise1993/Documents/HealthPayment/platforms/android/app/src/main/AndroidManifest.xml:18:118-186
	android:name
		ADDED from /home/austinwise1993/Documents/HealthPayment/platforms/android/app/src/main/AndroidManifest.xml:18:43-117
manifest
ADDED from /home/austinwise1993/Documents/HealthPayment/platforms/android/app/src/main/AndroidManifest.xml:2:1-42:12
INJECTED from /home/austinwise1993/Documents/HealthPayment/platforms/android/app/src/main/AndroidManifest.xml:2:1-42:12
INJECTED from /home/austinwise1993/Documents/HealthPayment/platforms/android/app/src/main/AndroidManifest.xml:2:1-42:12
INJECTED from /home/austinwise1993/Documents/HealthPayment/platforms/android/app/src/main/AndroidManifest.xml:2:1-42:12
MERGED from [me.leolin:ShortcutBadger:1.1.22] /home/austinwise1993/.gradle/caches/transforms-1/files-1.1/ShortcutBadger-1.1.22.aar/f6c14615cc4110534ba42e8cb8bcacde/AndroidManifest.xml:2:1-52:12
MERGED from [com.android.support:support-v13:23.4.0] /home/austinwise1993/.gradle/caches/transforms-1/files-1.1/support-v13-23.4.0.aar/4620a20c2c366355b573fff558a0658c/AndroidManifest.xml:17:1-24:12
MERGED from [com.android.support:support-v4:26.1.0] /home/austinwise1993/.gradle/caches/transforms-1/files-1.1/support-v4-26.1.0.aar/b2e83ebdc5078002b37aacc989fe4dd1/AndroidManifest.xml:17:1-31:12
MERGED from [com.android.support:support-media-compat:26.1.0] /home/austinwise1993/.gradle/caches/transforms-1/files-1.1/support-media-compat-26.1.0.aar/aa4d0abd8843cfd0eb3a7b23dea54fa6/AndroidManifest.xml:17:1-31:12
MERGED from [com.android.support:support-fragment:26.1.0] /home/austinwise1993/.gradle/caches/transforms-1/files-1.1/support-fragment-26.1.0.aar/b157c4a96951bb82879ab2c266612cd0/AndroidManifest.xml:17:1-31:12
MERGED from [com.android.support:support-core-utils:26.1.0] /home/austinwise1993/.gradle/caches/transforms-1/files-1.1/support-core-utils-26.1.0.aar/5ca05e9043a4f2396c2dc60f653cfc59/AndroidManifest.xml:17:1-31:12
MERGED from [com.android.support:support-core-ui:26.1.0] /home/austinwise1993/.gradle/caches/transforms-1/files-1.1/support-core-ui-26.1.0.aar/84ec6004e1d9d2a68108e7e2ff374a06/AndroidManifest.xml:17:1-31:12
MERGED from [com.android.support:support-compat:26.1.0] /home/austinwise1993/.gradle/caches/transforms-1/files-1.1/support-compat-26.1.0.aar/d656f06074470052624f05ddf6f19111/AndroidManifest.xml:17:1-31:12
MERGED from [:CordovaLib] /home/austinwise1993/Documents/HealthPayment/platforms/android/CordovaLib/build/intermediates/manifests/full/debug/AndroidManifest.xml:20:1-27:12
MERGED from [android.arch.lifecycle:runtime:1.0.0] /home/austinwise1993/.gradle/caches/transforms-1/files-1.1/runtime-1.0.0.aar/66474943d47ca11a7355ef1c41d2ea6b/AndroidManifest.xml:17:1-30:12
INJECTED from /home/austinwise1993/Documents/HealthPayment/platforms/android/app/src/main/AndroidManifest.xml:2:1-42:12
INJECTED from /home/austinwise1993/Documents/HealthPayment/platforms/android/app/src/main/AndroidManifest.xml:2:1-42:12
INJECTED from /home/austinwise1993/Documents/HealthPayment/platforms/android/app/src/main/AndroidManifest.xml:2:1-42:12
	package
		ADDED from /home/austinwise1993/Documents/HealthPayment/platforms/android/app/src/main/AndroidManifest.xml:2:98-124
		INJECTED from /home/austinwise1993/Documents/HealthPayment/platforms/android/app/src/main/AndroidManifest.xml
		INJECTED from /home/austinwise1993/Documents/HealthPayment/platforms/android/app/src/main/AndroidManifest.xml
	android:versionName
		ADDED from /home/austinwise1993/Documents/HealthPayment/platforms/android/app/src/main/AndroidManifest.xml:2:70-97
		INJECTED from /home/austinwise1993/Documents/HealthPayment/platforms/android/app/src/main/AndroidManifest.xml
		INJECTED from /home/austinwise1993/Documents/HealthPayment/platforms/android/app/src/main/AndroidManifest.xml
	android:hardwareAccelerated
		ADDED from /home/austinwise1993/Documents/HealthPayment/platforms/android/app/src/main/AndroidManifest.xml:2:11-45
	xmlns:android
		ADDED from /home/austinwise1993/Documents/HealthPayment/platforms/android/app/src/main/AndroidManifest.xml:2:125-183
	android:versionCode
		ADDED from /home/austinwise1993/Documents/HealthPayment/platforms/android/app/src/main/AndroidManifest.xml:2:46-69
		INJECTED from /home/austinwise1993/Documents/HealthPayment/platforms/android/app/src/main/AndroidManifest.xml
		INJECTED from /home/austinwise1993/Documents/HealthPayment/platforms/android/app/src/main/AndroidManifest.xml
supports-screens
ADDED from /home/austinwise1993/Documents/HealthPayment/platforms/android/app/src/main/AndroidManifest.xml:3:5-191
	android:largeScreens
		ADDED from /home/austinwise1993/Documents/HealthPayment/platforms/android/app/src/main/AndroidManifest.xml:3:49-76
	android:smallScreens
		ADDED from /home/austinwise1993/Documents/HealthPayment/platforms/android/app/src/main/AndroidManifest.xml:3:132-159
	android:normalScreens
		ADDED from /home/austinwise1993/Documents/HealthPayment/platforms/android/app/src/main/AndroidManifest.xml:3:77-105
	android:xlargeScreens
		ADDED from /home/austinwise1993/Documents/HealthPayment/platforms/android/app/src/main/AndroidManifest.xml:3:160-188
	android:resizeable
		ADDED from /home/austinwise1993/Documents/HealthPayment/platforms/android/app/src/main/AndroidManifest.xml:3:106-131
	android:anyDensity
		ADDED from /home/austinwise1993/Documents/HealthPayment/platforms/android/app/src/main/AndroidManifest.xml:3:23-48
uses-permission#android.permission.INTERNET
ADDED from /home/austinwise1993/Documents/HealthPayment/platforms/android/app/src/main/AndroidManifest.xml:4:5-67
	android:name
		ADDED from /home/austinwise1993/Documents/HealthPayment/platforms/android/app/src/main/AndroidManifest.xml:4:22-64
application
ADDED from /home/austinwise1993/Documents/HealthPayment/platforms/android/app/src/main/AndroidManifest.xml:5:5-29:19
MERGED from [com.android.support:support-v13:23.4.0] /home/austinwise1993/.gradle/caches/transforms-1/files-1.1/support-v13-23.4.0.aar/4620a20c2c366355b573fff558a0658c/AndroidManifest.xml:22:5-20
MERGED from [com.android.support:support-v13:23.4.0] /home/austinwise1993/.gradle/caches/transforms-1/files-1.1/support-v13-23.4.0.aar/4620a20c2c366355b573fff558a0658c/AndroidManifest.xml:22:5-20
MERGED from [com.android.support:support-v4:26.1.0] /home/austinwise1993/.gradle/caches/transforms-1/files-1.1/support-v4-26.1.0.aar/b2e83ebdc5078002b37aacc989fe4dd1/AndroidManifest.xml:25:5-29:19
MERGED from [com.android.support:support-v4:26.1.0] /home/austinwise1993/.gradle/caches/transforms-1/files-1.1/support-v4-26.1.0.aar/b2e83ebdc5078002b37aacc989fe4dd1/AndroidManifest.xml:25:5-29:19
MERGED from [com.android.support:support-media-compat:26.1.0] /home/austinwise1993/.gradle/caches/transforms-1/files-1.1/support-media-compat-26.1.0.aar/aa4d0abd8843cfd0eb3a7b23dea54fa6/AndroidManifest.xml:25:5-29:19
MERGED from [com.android.support:support-media-compat:26.1.0] /home/austinwise1993/.gradle/caches/transforms-1/files-1.1/support-media-compat-26.1.0.aar/aa4d0abd8843cfd0eb3a7b23dea54fa6/AndroidManifest.xml:25:5-29:19
MERGED from [com.android.support:support-fragment:26.1.0] /home/austinwise1993/.gradle/caches/transforms-1/files-1.1/support-fragment-26.1.0.aar/b157c4a96951bb82879ab2c266612cd0/AndroidManifest.xml:25:5-29:19
MERGED from [com.android.support:support-fragment:26.1.0] /home/austinwise1993/.gradle/caches/transforms-1/files-1.1/support-fragment-26.1.0.aar/b157c4a96951bb82879ab2c266612cd0/AndroidManifest.xml:25:5-29:19
MERGED from [com.android.support:support-core-utils:26.1.0] /home/austinwise1993/.gradle/caches/transforms-1/files-1.1/support-core-utils-26.1.0.aar/5ca05e9043a4f2396c2dc60f653cfc59/AndroidManifest.xml:25:5-29:19
MERGED from [com.android.support:support-core-utils:26.1.0] /home/austinwise1993/.gradle/caches/transforms-1/files-1.1/support-core-utils-26.1.0.aar/5ca05e9043a4f2396c2dc60f653cfc59/AndroidManifest.xml:25:5-29:19
MERGED from [com.android.support:support-core-ui:26.1.0] /home/austinwise1993/.gradle/caches/transforms-1/files-1.1/support-core-ui-26.1.0.aar/84ec6004e1d9d2a68108e7e2ff374a06/AndroidManifest.xml:25:5-29:19
MERGED from [com.android.support:support-core-ui:26.1.0] /home/austinwise1993/.gradle/caches/transforms-1/files-1.1/support-core-ui-26.1.0.aar/84ec6004e1d9d2a68108e7e2ff374a06/AndroidManifest.xml:25:5-29:19
MERGED from [com.android.support:support-compat:26.1.0] /home/austinwise1993/.gradle/caches/transforms-1/files-1.1/support-compat-26.1.0.aar/d656f06074470052624f05ddf6f19111/AndroidManifest.xml:25:5-29:19
MERGED from [com.android.support:support-compat:26.1.0] /home/austinwise1993/.gradle/caches/transforms-1/files-1.1/support-compat-26.1.0.aar/d656f06074470052624f05ddf6f19111/AndroidManifest.xml:25:5-29:19
MERGED from [android.arch.lifecycle:runtime:1.0.0] /home/austinwise1993/.gradle/caches/transforms-1/files-1.1/runtime-1.0.0.aar/66474943d47ca11a7355ef1c41d2ea6b/AndroidManifest.xml:24:5-28:19
MERGED from [android.arch.lifecycle:runtime:1.0.0] /home/austinwise1993/.gradle/caches/transforms-1/files-1.1/runtime-1.0.0.aar/66474943d47ca11a7355ef1c41d2ea6b/AndroidManifest.xml:24:5-28:19
	android:supportsRtl
		ADDED from /home/austinwise1993/Documents/HealthPayment/platforms/android/app/src/main/AndroidManifest.xml:5:114-140
	android:label
		ADDED from /home/austinwise1993/Documents/HealthPayment/platforms/android/app/src/main/AndroidManifest.xml:5:81-113
	android:hardwareAccelerated
		ADDED from /home/austinwise1993/Documents/HealthPayment/platforms/android/app/src/main/AndroidManifest.xml:5:18-52
	android:icon
		ADDED from /home/austinwise1993/Documents/HealthPayment/platforms/android/app/src/main/AndroidManifest.xml:5:53-80
activity#io.ionic.starter.MainActivity
ADDED from /home/austinwise1993/Documents/HealthPayment/platforms/android/app/src/main/AndroidManifest.xml:6:9-11:20
	android:label
		ADDED from /home/austinwise1993/Documents/HealthPayment/platforms/android/app/src/main/AndroidManifest.xml:6:97-134
	android:launchMode
		ADDED from /home/austinwise1993/Documents/HealthPayment/platforms/android/app/src/main/AndroidManifest.xml:6:135-165
	android:windowSoftInputMode
		ADDED from /home/austinwise1993/Documents/HealthPayment/platforms/android/app/src/main/AndroidManifest.xml:6:257-299
	android:configChanges
		ADDED from /home/austinwise1993/Documents/HealthPayment/platforms/android/app/src/main/AndroidManifest.xml:6:19-96
	android:theme
		ADDED from /home/austinwise1993/Documents/HealthPayment/platforms/android/app/src/main/AndroidManifest.xml:6:194-256
	android:name
		ADDED from /home/austinwise1993/Documents/HealthPayment/platforms/android/app/src/main/AndroidManifest.xml:6:166-193
intent-filter#android.intent.action.MAIN+android.intent.category.LAUNCHER
ADDED from /home/austinwise1993/Documents/HealthPayment/platforms/android/app/src/main/AndroidManifest.xml:7:13-10:29
	android:label
		ADDED from /home/austinwise1993/Documents/HealthPayment/platforms/android/app/src/main/AndroidManifest.xml:7:28-65
action#android.intent.action.MAIN
ADDED from /home/austinwise1993/Documents/HealthPayment/platforms/android/app/src/main/AndroidManifest.xml:8:17-69
	android:name
		ADDED from /home/austinwise1993/Documents/HealthPayment/platforms/android/app/src/main/AndroidManifest.xml:8:25-66
category#android.intent.category.LAUNCHER
ADDED from /home/austinwise1993/Documents/HealthPayment/platforms/android/app/src/main/AndroidManifest.xml:9:17-77
	android:name
		ADDED from /home/austinwise1993/Documents/HealthPayment/platforms/android/app/src/main/AndroidManifest.xml:9:27-74
receiver#de.appplant.cordova.plugin.localnotification.TriggerReceiver
ADDED from /home/austinwise1993/Documents/HealthPayment/platforms/android/app/src/main/AndroidManifest.xml:15:9-122
	android:exported
		ADDED from /home/austinwise1993/Documents/HealthPayment/platforms/android/app/src/main/AndroidManifest.xml:15:19-43
	android:name
		ADDED from /home/austinwise1993/Documents/HealthPayment/platforms/android/app/src/main/AndroidManifest.xml:15:44-119
receiver#de.appplant.cordova.plugin.localnotification.ClearReceiver
ADDED from /home/austinwise1993/Documents/HealthPayment/platforms/android/app/src/main/AndroidManifest.xml:16:9-120
	android:exported
		ADDED from /home/austinwise1993/Documents/HealthPayment/platforms/android/app/src/main/AndroidManifest.xml:16:19-43
	android:name
		ADDED from /home/austinwise1993/Documents/HealthPayment/platforms/android/app/src/main/AndroidManifest.xml:16:44-117
activity#de.appplant.cordova.plugin.localnotification.ClickReceiver
ADDED from /home/austinwise1993/Documents/HealthPayment/platforms/android/app/src/main/AndroidManifest.xml:17:9-205
	android:launchMode
		ADDED from /home/austinwise1993/Documents/HealthPayment/platforms/android/app/src/main/AndroidManifest.xml:17:44-79
	android:exported
		ADDED from /home/austinwise1993/Documents/HealthPayment/platforms/android/app/src/main/AndroidManifest.xml:17:19-43
	android:theme
		ADDED from /home/austinwise1993/Documents/HealthPayment/platforms/android/app/src/main/AndroidManifest.xml:17:154-202
	android:name
		ADDED from /home/austinwise1993/Documents/HealthPayment/platforms/android/app/src/main/AndroidManifest.xml:17:80-153
activity#activities.DeviceActivity
ADDED from /home/austinwise1993/Documents/HealthPayment/platforms/android/app/src/main/AndroidManifest.xml:19:9-118
	android:label
		ADDED from /home/austinwise1993/Documents/HealthPayment/platforms/android/app/src/main/AndroidManifest.xml:19:43-74
	android:exported
		ADDED from /home/austinwise1993/Documents/HealthPayment/platforms/android/app/src/main/AndroidManifest.xml:19:19-42
	android:name
		ADDED from /home/austinwise1993/Documents/HealthPayment/platforms/android/app/src/main/AndroidManifest.xml:19:75-115
service#models.messaging.nibss.HSMClient
ADDED from /home/austinwise1993/Documents/HealthPayment/platforms/android/app/src/main/AndroidManifest.xml:20:9-91
	android:enabled
		ADDED from /home/austinwise1993/Documents/HealthPayment/platforms/android/app/src/main/AndroidManifest.xml:20:18-40
	android:name
		ADDED from /home/austinwise1993/Documents/HealthPayment/platforms/android/app/src/main/AndroidManifest.xml:20:41-88
service#activities.DeviceActivityS
ADDED from /home/austinwise1993/Documents/HealthPayment/platforms/android/app/src/main/AndroidManifest.xml:21:9-85
	android:enabled
		ADDED from /home/austinwise1993/Documents/HealthPayment/platforms/android/app/src/main/AndroidManifest.xml:21:18-40
	android:name
		ADDED from /home/austinwise1993/Documents/HealthPayment/platforms/android/app/src/main/AndroidManifest.xml:21:41-82
service#utils.BluetoothService
ADDED from /home/austinwise1993/Documents/HealthPayment/platforms/android/app/src/main/AndroidManifest.xml:22:9-81
	android:enabled
		ADDED from /home/austinwise1993/Documents/HealthPayment/platforms/android/app/src/main/AndroidManifest.xml:22:18-40
	android:name
		ADDED from /home/austinwise1993/Documents/HealthPayment/platforms/android/app/src/main/AndroidManifest.xml:22:41-78
receiver#com.esl.lib.SmsBroadcastReceiver
ADDED from /home/austinwise1993/Documents/HealthPayment/platforms/android/app/src/main/AndroidManifest.xml:23:9-28:20
	android:enabled
		ADDED from /home/austinwise1993/Documents/HealthPayment/platforms/android/app/src/main/AndroidManifest.xml:23:19-41
	android:name
		ADDED from /home/austinwise1993/Documents/HealthPayment/platforms/android/app/src/main/AndroidManifest.xml:23:42-89
intent-filter#android.intent.action.DATA_SMS_RECEIVED+android.provider.Telephony.SMS_RECEIVED
ADDED from /home/austinwise1993/Documents/HealthPayment/platforms/android/app/src/main/AndroidManifest.xml:24:13-27:29
	android:priority
		ADDED from /home/austinwise1993/Documents/HealthPayment/platforms/android/app/src/main/AndroidManifest.xml:24:28-50
action#android.provider.Telephony.SMS_RECEIVED
ADDED from /home/austinwise1993/Documents/HealthPayment/platforms/android/app/src/main/AndroidManifest.xml:25:17-82
	android:name
		ADDED from /home/austinwise1993/Documents/HealthPayment/platforms/android/app/src/main/AndroidManifest.xml:25:25-79
action#android.intent.action.DATA_SMS_RECEIVED
ADDED from /home/austinwise1993/Documents/HealthPayment/platforms/android/app/src/main/AndroidManifest.xml:26:17-82
	android:name
		ADDED from /home/austinwise1993/Documents/HealthPayment/platforms/android/app/src/main/AndroidManifest.xml:26:25-79
uses-sdk
ADDED from /home/austinwise1993/Documents/HealthPayment/platforms/android/app/src/main/AndroidManifest.xml:30:5-74
INJECTED from /home/austinwise1993/Documents/HealthPayment/platforms/android/app/src/main/AndroidManifest.xml:30:5-74
MERGED from [me.leolin:ShortcutBadger:1.1.22] /home/austinwise1993/.gradle/caches/transforms-1/files-1.1/ShortcutBadger-1.1.22.aar/f6c14615cc4110534ba42e8cb8bcacde/AndroidManifest.xml:7:5-9:41
MERGED from [me.leolin:ShortcutBadger:1.1.22] /home/austinwise1993/.gradle/caches/transforms-1/files-1.1/ShortcutBadger-1.1.22.aar/f6c14615cc4110534ba42e8cb8bcacde/AndroidManifest.xml:7:5-9:41
MERGED from [com.android.support:support-v13:23.4.0] /home/austinwise1993/.gradle/caches/transforms-1/files-1.1/support-v13-23.4.0.aar/4620a20c2c366355b573fff558a0658c/AndroidManifest.xml:20:5-44
MERGED from [com.android.support:support-v13:23.4.0] /home/austinwise1993/.gradle/caches/transforms-1/files-1.1/support-v13-23.4.0.aar/4620a20c2c366355b573fff558a0658c/AndroidManifest.xml:20:5-44
MERGED from [com.android.support:support-v4:26.1.0] /home/austinwise1993/.gradle/caches/transforms-1/files-1.1/support-v4-26.1.0.aar/b2e83ebdc5078002b37aacc989fe4dd1/AndroidManifest.xml:21:5-23:54
MERGED from [com.android.support:support-v4:26.1.0] /home/austinwise1993/.gradle/caches/transforms-1/files-1.1/support-v4-26.1.0.aar/b2e83ebdc5078002b37aacc989fe4dd1/AndroidManifest.xml:21:5-23:54
MERGED from [com.android.support:support-media-compat:26.1.0] /home/austinwise1993/.gradle/caches/transforms-1/files-1.1/support-media-compat-26.1.0.aar/aa4d0abd8843cfd0eb3a7b23dea54fa6/AndroidManifest.xml:21:5-23:63
MERGED from [com.android.support:support-media-compat:26.1.0] /home/austinwise1993/.gradle/caches/transforms-1/files-1.1/support-media-compat-26.1.0.aar/aa4d0abd8843cfd0eb3a7b23dea54fa6/AndroidManifest.xml:21:5-23:63
MERGED from [com.android.support:support-fragment:26.1.0] /home/austinwise1993/.gradle/caches/transforms-1/files-1.1/support-fragment-26.1.0.aar/b157c4a96951bb82879ab2c266612cd0/AndroidManifest.xml:21:5-23:60
MERGED from [com.android.support:support-fragment:26.1.0] /home/austinwise1993/.gradle/caches/transforms-1/files-1.1/support-fragment-26.1.0.aar/b157c4a96951bb82879ab2c266612cd0/AndroidManifest.xml:21:5-23:60
MERGED from [com.android.support:support-core-utils:26.1.0] /home/austinwise1993/.gradle/caches/transforms-1/files-1.1/support-core-utils-26.1.0.aar/5ca05e9043a4f2396c2dc60f653cfc59/AndroidManifest.xml:21:5-23:61
MERGED from [com.android.support:support-core-utils:26.1.0] /home/austinwise1993/.gradle/caches/transforms-1/files-1.1/support-core-utils-26.1.0.aar/5ca05e9043a4f2396c2dc60f653cfc59/AndroidManifest.xml:21:5-23:61
MERGED from [com.android.support:support-core-ui:26.1.0] /home/austinwise1993/.gradle/caches/transforms-1/files-1.1/support-core-ui-26.1.0.aar/84ec6004e1d9d2a68108e7e2ff374a06/AndroidManifest.xml:21:5-23:58
MERGED from [com.android.support:support-core-ui:26.1.0] /home/austinwise1993/.gradle/caches/transforms-1/files-1.1/support-core-ui-26.1.0.aar/84ec6004e1d9d2a68108e7e2ff374a06/AndroidManifest.xml:21:5-23:58
MERGED from [com.android.support:support-compat:26.1.0] /home/austinwise1993/.gradle/caches/transforms-1/files-1.1/support-compat-26.1.0.aar/d656f06074470052624f05ddf6f19111/AndroidManifest.xml:21:5-23:58
MERGED from [com.android.support:support-compat:26.1.0] /home/austinwise1993/.gradle/caches/transforms-1/files-1.1/support-compat-26.1.0.aar/d656f06074470052624f05ddf6f19111/AndroidManifest.xml:21:5-23:58
MERGED from [:CordovaLib] /home/austinwise1993/Documents/HealthPayment/platforms/android/CordovaLib/build/intermediates/manifests/full/debug/AndroidManifest.xml:25:5-44
MERGED from [:CordovaLib] /home/austinwise1993/Documents/HealthPayment/platforms/android/CordovaLib/build/intermediates/manifests/full/debug/AndroidManifest.xml:25:5-44
MERGED from [android.arch.lifecycle:runtime:1.0.0] /home/austinwise1993/.gradle/caches/transforms-1/files-1.1/runtime-1.0.0.aar/66474943d47ca11a7355ef1c41d2ea6b/AndroidManifest.xml:20:5-22:41
MERGED from [android.arch.lifecycle:runtime:1.0.0] /home/austinwise1993/.gradle/caches/transforms-1/files-1.1/runtime-1.0.0.aar/66474943d47ca11a7355ef1c41d2ea6b/AndroidManifest.xml:20:5-22:41
INJECTED from /home/austinwise1993/Documents/HealthPayment/platforms/android/app/src/main/AndroidManifest.xml:30:5-74
	tools:overrideLibrary
		ADDED from [com.android.support:support-v4:26.1.0] /home/austinwise1993/.gradle/caches/transforms-1/files-1.1/support-v4-26.1.0.aar/b2e83ebdc5078002b37aacc989fe4dd1/AndroidManifest.xml:23:9-51
	android:targetSdkVersion
		ADDED from /home/austinwise1993/Documents/HealthPayment/platforms/android/app/src/main/AndroidManifest.xml:30:42-71
	android:minSdkVersion
		ADDED from /home/austinwise1993/Documents/HealthPayment/platforms/android/app/src/main/AndroidManifest.xml:30:15-41
		INJECTED from /home/austinwise1993/Documents/HealthPayment/platforms/android/app/src/main/AndroidManifest.xml
		INJECTED from /home/austinwise1993/Documents/HealthPayment/platforms/android/app/src/main/AndroidManifest.xml
uses-permission#android.permission.WAKE_LOCK
ADDED from /home/austinwise1993/Documents/HealthPayment/platforms/android/app/src/main/AndroidManifest.xml:31:5-68
	android:name
		ADDED from /home/austinwise1993/Documents/HealthPayment/platforms/android/app/src/main/AndroidManifest.xml:31:22-65
uses-permission#android.permission.INTERACT_ACROSS_USERS_FULL
ADDED from /home/austinwise1993/Documents/HealthPayment/platforms/android/app/src/main/AndroidManifest.xml:32:5-121
	android:protectionLevel
		ADDED from /home/austinwise1993/Documents/HealthPayment/platforms/android/app/src/main/AndroidManifest.xml:32:83-118
	android:name
		ADDED from /home/austinwise1993/Documents/HealthPayment/platforms/android/app/src/main/AndroidManifest.xml:32:22-82
uses-permission#android.permission.BLUETOOTH
ADDED from /home/austinwise1993/Documents/HealthPayment/platforms/android/app/src/main/AndroidManifest.xml:33:5-68
	android:name
		ADDED from /home/austinwise1993/Documents/HealthPayment/platforms/android/app/src/main/AndroidManifest.xml:33:22-65
uses-permission#android.permission.BLUETOOTH_ADMIN
ADDED from /home/austinwise1993/Documents/HealthPayment/platforms/android/app/src/main/AndroidManifest.xml:34:5-74
	android:name
		ADDED from /home/austinwise1993/Documents/HealthPayment/platforms/android/app/src/main/AndroidManifest.xml:34:22-71
uses-permission#android.permission.ACCESS_NETWORK_STATE
ADDED from /home/austinwise1993/Documents/HealthPayment/platforms/android/app/src/main/AndroidManifest.xml:35:5-79
	android:name
		ADDED from /home/austinwise1993/Documents/HealthPayment/platforms/android/app/src/main/AndroidManifest.xml:35:22-76
uses-permission#android.permission.ACCESS_WIFI_STATE
ADDED from /home/austinwise1993/Documents/HealthPayment/platforms/android/app/src/main/AndroidManifest.xml:36:5-76
	android:name
		ADDED from /home/austinwise1993/Documents/HealthPayment/platforms/android/app/src/main/AndroidManifest.xml:36:22-73
uses-permission#android.permission.SEND_SMS
ADDED from /home/austinwise1993/Documents/HealthPayment/platforms/android/app/src/main/AndroidManifest.xml:37:5-67
	android:name
		ADDED from /home/austinwise1993/Documents/HealthPayment/platforms/android/app/src/main/AndroidManifest.xml:37:22-64
uses-permission#android.permission.READ_SMS
ADDED from /home/austinwise1993/Documents/HealthPayment/platforms/android/app/src/main/AndroidManifest.xml:38:5-67
	android:name
		ADDED from /home/austinwise1993/Documents/HealthPayment/platforms/android/app/src/main/AndroidManifest.xml:38:22-64
uses-permission#android.permission.RECEIVE_SMS
ADDED from /home/austinwise1993/Documents/HealthPayment/platforms/android/app/src/main/AndroidManifest.xml:39:5-70
	android:name
		ADDED from /home/austinwise1993/Documents/HealthPayment/platforms/android/app/src/main/AndroidManifest.xml:39:22-67
uses-feature#android.hardware.telephony
ADDED from /home/austinwise1993/Documents/HealthPayment/platforms/android/app/src/main/AndroidManifest.xml:40:5-88
	android:required
		ADDED from /home/austinwise1993/Documents/HealthPayment/platforms/android/app/src/main/AndroidManifest.xml:40:61-85
	android:name
		ADDED from /home/austinwise1993/Documents/HealthPayment/platforms/android/app/src/main/AndroidManifest.xml:40:19-60
uses-permission#android.permission.WRITE_EXTERNAL_STORAGE
ADDED from /home/austinwise1993/Documents/HealthPayment/platforms/android/app/src/main/AndroidManifest.xml:41:5-81
	android:name
		ADDED from /home/austinwise1993/Documents/HealthPayment/platforms/android/app/src/main/AndroidManifest.xml:41:22-78
meta-data#android.support.FILE_PROVIDER_PATHS
ADDED from /home/austinwise1993/Documents/HealthPayment/platforms/android/app/src/main/AndroidManifest.xml:13:13-134
	android:resource
		ADDED from /home/austinwise1993/Documents/HealthPayment/platforms/android/app/src/main/AndroidManifest.xml:13:75-131
	android:name
		ADDED from /home/austinwise1993/Documents/HealthPayment/platforms/android/app/src/main/AndroidManifest.xml:13:24-74
uses-permission#com.sec.android.provider.badge.permission.READ
ADDED from [me.leolin:ShortcutBadger:1.1.22] /home/austinwise1993/.gradle/caches/transforms-1/files-1.1/ShortcutBadger-1.1.22.aar/f6c14615cc4110534ba42e8cb8bcacde/AndroidManifest.xml:19:5-86
	android:name
		ADDED from [me.leolin:ShortcutBadger:1.1.22] /home/austinwise1993/.gradle/caches/transforms-1/files-1.1/ShortcutBadger-1.1.22.aar/f6c14615cc4110534ba42e8cb8bcacde/AndroidManifest.xml:19:22-83
uses-permission#com.sec.android.provider.badge.permission.WRITE
ADDED from [me.leolin:ShortcutBadger:1.1.22] /home/austinwise1993/.gradle/caches/transforms-1/files-1.1/ShortcutBadger-1.1.22.aar/f6c14615cc4110534ba42e8cb8bcacde/AndroidManifest.xml:20:5-87
	android:name
		ADDED from [me.leolin:ShortcutBadger:1.1.22] /home/austinwise1993/.gradle/caches/transforms-1/files-1.1/ShortcutBadger-1.1.22.aar/f6c14615cc4110534ba42e8cb8bcacde/AndroidManifest.xml:20:22-84
uses-permission#com.htc.launcher.permission.READ_SETTINGS
ADDED from [me.leolin:ShortcutBadger:1.1.22] /home/austinwise1993/.gradle/caches/transforms-1/files-1.1/ShortcutBadger-1.1.22.aar/f6c14615cc4110534ba42e8cb8bcacde/AndroidManifest.xml:23:5-81
	android:name
		ADDED from [me.leolin:ShortcutBadger:1.1.22] /home/austinwise1993/.gradle/caches/transforms-1/files-1.1/ShortcutBadger-1.1.22.aar/f6c14615cc4110534ba42e8cb8bcacde/AndroidManifest.xml:23:22-78
uses-permission#com.htc.launcher.permission.UPDATE_SHORTCUT
ADDED from [me.leolin:ShortcutBadger:1.1.22] /home/austinwise1993/.gradle/caches/transforms-1/files-1.1/ShortcutBadger-1.1.22.aar/f6c14615cc4110534ba42e8cb8bcacde/AndroidManifest.xml:24:5-83
	android:name
		ADDED from [me.leolin:ShortcutBadger:1.1.22] /home/austinwise1993/.gradle/caches/transforms-1/files-1.1/ShortcutBadger-1.1.22.aar/f6c14615cc4110534ba42e8cb8bcacde/AndroidManifest.xml:24:22-80
uses-permission#com.sonyericsson.home.permission.BROADCAST_BADGE
ADDED from [me.leolin:ShortcutBadger:1.1.22] /home/austinwise1993/.gradle/caches/transforms-1/files-1.1/ShortcutBadger-1.1.22.aar/f6c14615cc4110534ba42e8cb8bcacde/AndroidManifest.xml:27:5-88
	android:name
		ADDED from [me.leolin:ShortcutBadger:1.1.22] /home/austinwise1993/.gradle/caches/transforms-1/files-1.1/ShortcutBadger-1.1.22.aar/f6c14615cc4110534ba42e8cb8bcacde/AndroidManifest.xml:27:22-85
uses-permission#com.sonymobile.home.permission.PROVIDER_INSERT_BADGE
ADDED from [me.leolin:ShortcutBadger:1.1.22] /home/austinwise1993/.gradle/caches/transforms-1/files-1.1/ShortcutBadger-1.1.22.aar/f6c14615cc4110534ba42e8cb8bcacde/AndroidManifest.xml:28:5-92
	android:name
		ADDED from [me.leolin:ShortcutBadger:1.1.22] /home/austinwise1993/.gradle/caches/transforms-1/files-1.1/ShortcutBadger-1.1.22.aar/f6c14615cc4110534ba42e8cb8bcacde/AndroidManifest.xml:28:22-89
uses-permission#com.anddoes.launcher.permission.UPDATE_COUNT
ADDED from [me.leolin:ShortcutBadger:1.1.22] /home/austinwise1993/.gradle/caches/transforms-1/files-1.1/ShortcutBadger-1.1.22.aar/f6c14615cc4110534ba42e8cb8bcacde/AndroidManifest.xml:31:5-84
	android:name
		ADDED from [me.leolin:ShortcutBadger:1.1.22] /home/austinwise1993/.gradle/caches/transforms-1/files-1.1/ShortcutBadger-1.1.22.aar/f6c14615cc4110534ba42e8cb8bcacde/AndroidManifest.xml:31:22-81
uses-permission#com.majeur.launcher.permission.UPDATE_BADGE
ADDED from [me.leolin:ShortcutBadger:1.1.22] /home/austinwise1993/.gradle/caches/transforms-1/files-1.1/ShortcutBadger-1.1.22.aar/f6c14615cc4110534ba42e8cb8bcacde/AndroidManifest.xml:34:5-83
	android:name
		ADDED from [me.leolin:ShortcutBadger:1.1.22] /home/austinwise1993/.gradle/caches/transforms-1/files-1.1/ShortcutBadger-1.1.22.aar/f6c14615cc4110534ba42e8cb8bcacde/AndroidManifest.xml:34:22-80
uses-permission#com.huawei.android.launcher.permission.CHANGE_BADGE
ADDED from [me.leolin:ShortcutBadger:1.1.22] /home/austinwise1993/.gradle/caches/transforms-1/files-1.1/ShortcutBadger-1.1.22.aar/f6c14615cc4110534ba42e8cb8bcacde/AndroidManifest.xml:37:5-91
	android:name
		ADDED from [me.leolin:ShortcutBadger:1.1.22] /home/austinwise1993/.gradle/caches/transforms-1/files-1.1/ShortcutBadger-1.1.22.aar/f6c14615cc4110534ba42e8cb8bcacde/AndroidManifest.xml:37:22-88
uses-permission#com.huawei.android.launcher.permission.READ_SETTINGS
ADDED from [me.leolin:ShortcutBadger:1.1.22] /home/austinwise1993/.gradle/caches/transforms-1/files-1.1/ShortcutBadger-1.1.22.aar/f6c14615cc4110534ba42e8cb8bcacde/AndroidManifest.xml:38:5-92
	android:name
		ADDED from [me.leolin:ShortcutBadger:1.1.22] /home/austinwise1993/.gradle/caches/transforms-1/files-1.1/ShortcutBadger-1.1.22.aar/f6c14615cc4110534ba42e8cb8bcacde/AndroidManifest.xml:38:22-89
uses-permission#com.huawei.android.launcher.permission.WRITE_SETTINGS
ADDED from [me.leolin:ShortcutBadger:1.1.22] /home/austinwise1993/.gradle/caches/transforms-1/files-1.1/ShortcutBadger-1.1.22.aar/f6c14615cc4110534ba42e8cb8bcacde/AndroidManifest.xml:39:5-93
	android:name
		ADDED from [me.leolin:ShortcutBadger:1.1.22] /home/austinwise1993/.gradle/caches/transforms-1/files-1.1/ShortcutBadger-1.1.22.aar/f6c14615cc4110534ba42e8cb8bcacde/AndroidManifest.xml:39:22-90
uses-permission#android.permission.READ_APP_BADGE
ADDED from [me.leolin:ShortcutBadger:1.1.22] /home/austinwise1993/.gradle/caches/transforms-1/files-1.1/ShortcutBadger-1.1.22.aar/f6c14615cc4110534ba42e8cb8bcacde/AndroidManifest.xml:42:5-73
	android:name
		ADDED from [me.leolin:ShortcutBadger:1.1.22] /home/austinwise1993/.gradle/caches/transforms-1/files-1.1/ShortcutBadger-1.1.22.aar/f6c14615cc4110534ba42e8cb8bcacde/AndroidManifest.xml:42:22-70
uses-permission#com.oppo.launcher.permission.READ_SETTINGS
ADDED from [me.leolin:ShortcutBadger:1.1.22] /home/austinwise1993/.gradle/caches/transforms-1/files-1.1/ShortcutBadger-1.1.22.aar/f6c14615cc4110534ba42e8cb8bcacde/AndroidManifest.xml:45:5-82
	android:name
		ADDED from [me.leolin:ShortcutBadger:1.1.22] /home/austinwise1993/.gradle/caches/transforms-1/files-1.1/ShortcutBadger-1.1.22.aar/f6c14615cc4110534ba42e8cb8bcacde/AndroidManifest.xml:45:22-79
uses-permission#com.oppo.launcher.permission.WRITE_SETTINGS
ADDED from [me.leolin:ShortcutBadger:1.1.22] /home/austinwise1993/.gradle/caches/transforms-1/files-1.1/ShortcutBadger-1.1.22.aar/f6c14615cc4110534ba42e8cb8bcacde/AndroidManifest.xml:46:5-83
	android:name
		ADDED from [me.leolin:ShortcutBadger:1.1.22] /home/austinwise1993/.gradle/caches/transforms-1/files-1.1/ShortcutBadger-1.1.22.aar/f6c14615cc4110534ba42e8cb8bcacde/AndroidManifest.xml:46:22-80
uses-permission#me.everything.badger.permission.BADGE_COUNT_READ
ADDED from [me.leolin:ShortcutBadger:1.1.22] /home/austinwise1993/.gradle/caches/transforms-1/files-1.1/ShortcutBadger-1.1.22.aar/f6c14615cc4110534ba42e8cb8bcacde/AndroidManifest.xml:49:5-88
	android:name
		ADDED from [me.leolin:ShortcutBadger:1.1.22] /home/austinwise1993/.gradle/caches/transforms-1/files-1.1/ShortcutBadger-1.1.22.aar/f6c14615cc4110534ba42e8cb8bcacde/AndroidManifest.xml:49:22-85
uses-permission#me.everything.badger.permission.BADGE_COUNT_WRITE
ADDED from [me.leolin:ShortcutBadger:1.1.22] /home/austinwise1993/.gradle/caches/transforms-1/files-1.1/ShortcutBadger-1.1.22.aar/f6c14615cc4110534ba42e8cb8bcacde/AndroidManifest.xml:50:5-89
	android:name
		ADDED from [me.leolin:ShortcutBadger:1.1.22] /home/austinwise1993/.gradle/caches/transforms-1/files-1.1/ShortcutBadger-1.1.22.aar/f6c14615cc4110534ba42e8cb8bcacde/AndroidManifest.xml:50:22-86
meta-data#android.support.VERSION
ADDED from [com.android.support:support-v4:26.1.0] /home/austinwise1993/.gradle/caches/transforms-1/files-1.1/support-v4-26.1.0.aar/b2e83ebdc5078002b37aacc989fe4dd1/AndroidManifest.xml:26:9-28:38
MERGED from [com.android.support:support-media-compat:26.1.0] /home/austinwise1993/.gradle/caches/transforms-1/files-1.1/support-media-compat-26.1.0.aar/aa4d0abd8843cfd0eb3a7b23dea54fa6/AndroidManifest.xml:26:9-28:38
MERGED from [com.android.support:support-media-compat:26.1.0] /home/austinwise1993/.gradle/caches/transforms-1/files-1.1/support-media-compat-26.1.0.aar/aa4d0abd8843cfd0eb3a7b23dea54fa6/AndroidManifest.xml:26:9-28:38
MERGED from [com.android.support:support-fragment:26.1.0] /home/austinwise1993/.gradle/caches/transforms-1/files-1.1/support-fragment-26.1.0.aar/b157c4a96951bb82879ab2c266612cd0/AndroidManifest.xml:26:9-28:38
MERGED from [com.android.support:support-fragment:26.1.0] /home/austinwise1993/.gradle/caches/transforms-1/files-1.1/support-fragment-26.1.0.aar/b157c4a96951bb82879ab2c266612cd0/AndroidManifest.xml:26:9-28:38
MERGED from [com.android.support:support-core-utils:26.1.0] /home/austinwise1993/.gradle/caches/transforms-1/files-1.1/support-core-utils-26.1.0.aar/5ca05e9043a4f2396c2dc60f653cfc59/AndroidManifest.xml:26:9-28:38
MERGED from [com.android.support:support-core-utils:26.1.0] /home/austinwise1993/.gradle/caches/transforms-1/files-1.1/support-core-utils-26.1.0.aar/5ca05e9043a4f2396c2dc60f653cfc59/AndroidManifest.xml:26:9-28:38
MERGED from [com.android.support:support-core-ui:26.1.0] /home/austinwise1993/.gradle/caches/transforms-1/files-1.1/support-core-ui-26.1.0.aar/84ec6004e1d9d2a68108e7e2ff374a06/AndroidManifest.xml:26:9-28:38
MERGED from [com.android.support:support-core-ui:26.1.0] /home/austinwise1993/.gradle/caches/transforms-1/files-1.1/support-core-ui-26.1.0.aar/84ec6004e1d9d2a68108e7e2ff374a06/AndroidManifest.xml:26:9-28:38
MERGED from [com.android.support:support-compat:26.1.0] /home/austinwise1993/.gradle/caches/transforms-1/files-1.1/support-compat-26.1.0.aar/d656f06074470052624f05ddf6f19111/AndroidManifest.xml:26:9-28:38
MERGED from [com.android.support:support-compat:26.1.0] /home/austinwise1993/.gradle/caches/transforms-1/files-1.1/support-compat-26.1.0.aar/d656f06074470052624f05ddf6f19111/AndroidManifest.xml:26:9-28:38
	android:value
		ADDED from [com.android.support:support-v4:26.1.0] /home/austinwise1993/.gradle/caches/transforms-1/files-1.1/support-v4-26.1.0.aar/b2e83ebdc5078002b37aacc989fe4dd1/AndroidManifest.xml:28:13-35
	android:name
		ADDED from [com.android.support:support-v4:26.1.0] /home/austinwise1993/.gradle/caches/transforms-1/files-1.1/support-v4-26.1.0.aar/b2e83ebdc5078002b37aacc989fe4dd1/AndroidManifest.xml:27:13-51
meta-data#android.arch.lifecycle.VERSION
ADDED from [android.arch.lifecycle:runtime:1.0.0] /home/austinwise1993/.gradle/caches/transforms-1/files-1.1/runtime-1.0.0.aar/66474943d47ca11a7355ef1c41d2ea6b/AndroidManifest.xml:25:9-27:47
	android:value
		ADDED from [android.arch.lifecycle:runtime:1.0.0] /home/austinwise1993/.gradle/caches/transforms-1/files-1.1/runtime-1.0.0.aar/66474943d47ca11a7355ef1c41d2ea6b/AndroidManifest.xml:27:13-44
	android:name
		ADDED from [android.arch.lifecycle:runtime:1.0.0] /home/austinwise1993/.gradle/caches/transforms-1/files-1.1/runtime-1.0.0.aar/66474943d47ca11a7355ef1c41d2ea6b/AndroidManifest.xml:26:13-58
